<?xml version="1.0" encoding="UTF-8"?><svg xmlns="http://www.w3.org/2000/svg" xmlns:xlink="http://www.w3.org/1999/xlink" fill-opacity="1" color-rendering="auto" color-interpolation="auto" stroke="black" text-rendering="auto" stroke-linecap="square" width="724" stroke-miterlimit="10" stroke-opacity="1" shape-rendering="auto" fill="black" stroke-dasharray="none" font-weight="normal" stroke-width="1" height="346" font-family="'Dialog'" font-style="normal" stroke-linejoin="miter" font-size="12" stroke-dashoffset="0" image-rendering="auto">
  <!--Generated by ySVG 2.5-->
  <defs id="genericDefs"/>
  <g>
    <defs id="defs1">
      <linearGradient x1="73.5" gradientUnits="userSpaceOnUse" x2="766.5" y1="36" y2="171" id="linearGradient1" spreadMethod="reflect">
        <stop stop-opacity="0.902" stop-color="rgb(255,255,255)" offset="0%"/>
        <stop stop-opacity="0.8" stop-color="rgb(212,212,212)" offset="100%"/>
      </linearGradient>
      <linearGradient x1="103.5" gradientUnits="userSpaceOnUse" x2="288.5" y1="85" y2="125" id="linearGradient2" spreadMethod="reflect">
        <stop stop-opacity="1" stop-color="rgb(232,238,247)" offset="0%"/>
        <stop stop-opacity="1" stop-color="rgb(183,201,227)" offset="100%"/>
      </linearGradient>
      <linearGradient x1="327.5" gradientUnits="userSpaceOnUse" x2="512.5" y1="85" y2="125" id="linearGradient3" spreadMethod="reflect">
        <stop stop-opacity="1" stop-color="rgb(232,238,247)" offset="0%"/>
        <stop stop-opacity="1" stop-color="rgb(183,201,227)" offset="100%"/>
      </linearGradient>
      <linearGradient x1="551.5" gradientUnits="userSpaceOnUse" x2="736.5" y1="85" y2="125" id="linearGradient4" spreadMethod="reflect">
        <stop stop-opacity="1" stop-color="rgb(232,238,247)" offset="0%"/>
        <stop stop-opacity="1" stop-color="rgb(183,201,227)" offset="100%"/>
      </linearGradient>
      <linearGradient x1="204.25" gradientUnits="userSpaceOnUse" x2="636.75" y1="242.5" y2="351.5" id="linearGradient5" spreadMethod="reflect">
        <stop stop-opacity="0.902" stop-color="rgb(255,255,255)" offset="0%"/>
        <stop stop-opacity="0.8" stop-color="rgb(212,212,212)" offset="100%"/>
      </linearGradient>
      <linearGradient x1="270" gradientUnits="userSpaceOnUse" x2="390" y1="280" y2="320" id="linearGradient6" spreadMethod="reflect">
        <stop stop-opacity="1" stop-color="rgb(232,238,247)" offset="0%"/>
        <stop stop-opacity="1" stop-color="rgb(183,201,227)" offset="100%"/>
      </linearGradient>
      <linearGradient x1="450" gradientUnits="userSpaceOnUse" x2="570" y1="280" y2="320" id="linearGradient7" spreadMethod="reflect">
        <stop stop-opacity="1" stop-color="rgb(232,238,247)" offset="0%"/>
        <stop stop-opacity="1" stop-color="rgb(183,201,227)" offset="100%"/>
      </linearGradient>
      <clipPath clipPathUnits="userSpaceOnUse" id="clipPath1">
        <path d="M0 0 L724 0 L724 346 L0 346 L0 0 Z"/>
      </clipPath>
      <clipPath clipPathUnits="userSpaceOnUse" id="clipPath2">
        <path d="M58 21 L782 21 L782 367 L58 367 L58 21 Z"/>
      </clipPath>
      <clipPath clipPathUnits="userSpaceOnUse" id="clipPath3">
        <path d="M3.5447 3.7291 L270.611 3.7291 L270.611 131.3602 L3.5447 131.3602 L3.5447 3.7291 Z"/>
      </clipPath>
      <clipPath clipPathUnits="userSpaceOnUse" id="clipPath4">
        <path d="M-77.649 -122.1386 L350.3972 -122.1386 L350.3972 82.4249 L-77.649 82.4249 L-77.649 -122.1386 Z"/>
      </clipPath>
    </defs>
    <g fill="white" text-rendering="geometricPrecision" shape-rendering="geometricPrecision" transform="translate(-58,-21)" stroke="white">
      <rect x="58" width="724" height="346" y="21" clip-path="url(#clipPath2)" stroke="none"/>
    </g>
    <g text-rendering="geometricPrecision" shape-rendering="geometricPrecision" transform="matrix(2.7109,0,0,2.7109,-9.6094,-10.1094)" image-rendering="optimizeQuality">
      <image x="0" y="0" clip-path="url(#clipPath3)" width="275" xlink:href="data:image/png;base64,iVBORw0KGgoAAAANSUhEUgAAARMAAABGCAYAAADvnXBIAAACGklEQVR42u3ai26b&#10;MBiAUW7JVu3933XNBQrS740hsVBIpcY+R7IIVZpKJHyynVYVAAAAAAAA31f9xc8H&#10;Xt/wzDjUiyEsUEZAhsU4FJPpOU2MdnYO5B+UafTjuMdxNSrdxpC08dxTHBszEygi&#10;JFNEbjGus6Dsjsn0vJ/j+DGO8ywog2sO2cakj4i8xxgiKNWRmJwiJL/ieLLUgexj&#10;kmYj7ez8vjY7+czM5BwheYuYtGYmkH1M2ojHpfq7Z7prZlJV/26+nmKcxQSyj0na&#10;yujifm+OxmQ+Q1kOIE/94l5/+IVLd/APmpkAf5YwAGICiAkgJgBiAogJICaAmACI&#10;CSAmgJgAYgIgJoCYAGICiIlLAIgJICaAmACICSAmgJgAYgIgJoCYAGICiAmAmABi&#10;AogJgJgAYgJ8J51LQKgP/O7g8mFmAogJICaAmFCgujq2p0IBbMDyKCJr5zZdMTNh&#10;V0hATNjFzIMvW+YMKwNB8TnI873/1L3ebXzRPsY9xk1MiljW1BsD4nOQZ0zS/d5v&#10;ud+7DS+YYjIF5DqONn7W+hBlHxNLorJjku75azzu//deb4lJCsllHL/jvBMTMRGT&#10;7GPSR0je45hmKbtjco8XauL8EiGx2192XASkjJik+/8Sj1eXO1v2TNLMpIpjG2ER&#10;E8g7JvOg3B7NTLYEIf33Y7M4AmUEZf4lzPCMdXL9hLU18JpRsbQFAAAAAAB4aR+D&#10;FY1Y12pg5wAAAABJRU5ErkJggg==" height="70" preserveAspectRatio="none"/>
      <rect x="73.5" y="36" transform="matrix(0.3689,0,0,0.3689,-17.8501,-4.0173)" clip-path="url(#clipPath2)" fill="url(#linearGradient1)" width="693" image-rendering="auto" rx="4" ry="4" height="135" stroke="none"/>
    </g>
    <g stroke-linecap="butt" transform="matrix(1,0,0,1,-58,-21)" fill="rgb(18,62,162)" text-rendering="geometricPrecision" shape-rendering="geometricPrecision" stroke="rgb(18,62,162)" stroke-miterlimit="1.45">
      <rect x="73.5" y="36" clip-path="url(#clipPath2)" fill="none" width="693" rx="4" ry="4" height="135"/>
    </g>
    <g stroke-linecap="butt" transform="matrix(1,0,0,1,-58,-21)" fill-opacity="0" fill="rgb(0,0,0)" text-rendering="geometricPrecision" shape-rendering="geometricPrecision" stroke="rgb(0,0,0)" stroke-opacity="0" stroke-miterlimit="1.45">
      <path d="M412.5 152 L427.5 152 L427.5 167 L412.5 167 Z" clip-path="url(#clipPath2)" stroke="none"/>
    </g>
    <g text-rendering="geometricPrecision" shape-rendering="geometricPrecision" transform="matrix(1,0,0,1,-58,-21)" stroke-linecap="butt">
      <path fill="none" d="M412.5 152 L427.5 152 L427.5 167 L412.5 167 Z" clip-path="url(#clipPath2)"/>
      <path fill="none" d="M416.16 159.5 L423.84 159.5" clip-path="url(#clipPath2)"/>
      <text x="409.0635" y="53.1387" clip-path="url(#clipPath2)" font-family="sans-serif" stroke="none" xml:space="preserve" stroke-miterlimit="1.45">Idle</text>
    </g>
    <g fill="url(#linearGradient2)" text-rendering="geometricPrecision" shape-rendering="geometricPrecision" transform="matrix(1,0,0,1,-58,-21)" stroke="url(#linearGradient2)">
      <rect x="103.5" y="85" clip-path="url(#clipPath2)" width="185" rx="20" ry="20" height="40" stroke="none"/>
    </g>
    <g text-rendering="geometricPrecision" stroke-miterlimit="1.45" shape-rendering="geometricPrecision" transform="matrix(1,0,0,1,-58,-21)" stroke-linecap="butt">
      <rect x="103.5" y="85" clip-path="url(#clipPath2)" fill="none" width="185" rx="20" ry="20" height="40"/>
      <text x="185.0635" xml:space="preserve" y="102.1699" font-family="sans-serif" clip-path="url(#clipPath2)" stroke="none">Idle</text>
      <text x="130.0996" xml:space="preserve" y="116.1387" font-family="sans-serif" clip-path="url(#clipPath2)" stroke="none">Execution Completion</text>
    </g>
    <g fill="url(#linearGradient3)" text-rendering="geometricPrecision" shape-rendering="geometricPrecision" transform="matrix(1,0,0,1,-58,-21)" stroke="url(#linearGradient3)">
      <rect x="327.5" y="85" clip-path="url(#clipPath2)" width="185" rx="20" ry="20" height="40" stroke="none"/>
    </g>
    <g text-rendering="geometricPrecision" stroke-miterlimit="1.45" shape-rendering="geometricPrecision" transform="matrix(1,0,0,1,-58,-21)" stroke-linecap="butt">
      <rect x="327.5" y="85" clip-path="url(#clipPath2)" fill="none" width="185" rx="20" ry="20" height="40"/>
      <text x="409.0635" xml:space="preserve" y="102.1699" font-family="sans-serif" clip-path="url(#clipPath2)" stroke="none">Idle</text>
      <text x="342.4863" xml:space="preserve" y="116.1387" font-family="sans-serif" clip-path="url(#clipPath2)" stroke="none">Data Transfer Completion</text>
    </g>
    <g fill="url(#linearGradient4)" text-rendering="geometricPrecision" shape-rendering="geometricPrecision" transform="matrix(1,0,0,1,-58,-21)" stroke="url(#linearGradient4)">
      <rect x="551.5" y="85" clip-path="url(#clipPath2)" width="185" rx="20" ry="20" height="40" stroke="none"/>
    </g>
    <g text-rendering="geometricPrecision" stroke-miterlimit="1.45" shape-rendering="geometricPrecision" transform="matrix(1,0,0,1,-58,-21)" stroke-linecap="butt">
      <rect x="551.5" y="85" clip-path="url(#clipPath2)" fill="none" width="185" rx="20" ry="20" height="40"/>
      <text x="633.0635" xml:space="preserve" y="102.1699" font-family="sans-serif" clip-path="url(#clipPath2)" stroke="none">Idle</text>
      <text x="563.4512" xml:space="preserve" y="116.1387" font-family="sans-serif" clip-path="url(#clipPath2)" stroke="none">Data Structure Completion</text>
    </g>
    <g text-rendering="geometricPrecision" shape-rendering="geometricPrecision" transform="matrix(1.6914,0,0,1.6914,131.3359,206.5859)" image-rendering="optimizeQuality">
      <image x="0" y="0" clip-path="url(#clipPath4)" width="276" xlink:href="data:image/png;base64,iVBORw0KGgoAAAANSUhEUgAAARQAAABVCAYAAACIAxsEAAACe0lEQVR42u3bi27a&#10;QBBAURubpur/f2wTHltczUoji4epEVXW50ir8LBAAnMZx0nXAQAAAAAA8P30K7bv&#10;vXzQrHLj8kuC0l9ZogLbiMm0zkvCsiQI0za7WEO6LCbQdlRqSKZ1SpdvGhfGZIht&#10;97FqVIB2g1JDcrysQ6xyb1JZGpRpu5+xfsT1PKUUrz98e336LJcUk890X719VVCm&#10;qeTjsn5FVPYmFGh+QpnC8RWf9Xq9HvqUZ4NSf/laD3c+ZlPKYDKB5oOyi4Ac4jN/&#10;93enSyaUHJV9xGQft3UOeaDZQ546mdSYPDwZMy58kt1sDQ55oGnnFJV8Znd1UB6N&#10;RQB/mTKA/x4UkwlgQgEEBRAUQFAABAUQFEBQAAQFEBRAUABBARAUQFAAQQEQFEBQ&#10;AEEBBAVAUABBAQQFQFAAQQEEBRAUAEEBBAUQFEBQAAQFEBRAUAAEBRAUQFAAQQEQ&#10;FEBQAEEBEBTgDUYvARf9ix6neClNKACCAggKIChsTJ9+5jW/HwSFxTG5dl8vKggK&#10;a2Nyb3sQFFaHBwSFl8RCVBAUQFB4n/Li7RAUIy843H1vUHxDmU7sA9t8/68an3iS&#10;c1olLdrdscqNb6x8e/EF0+z7f+0zvyoo+UFPsY4x2diR2h1z+yd3PPtBW/tBjcdp&#10;th5GZUlQSkTkcFmfKSaD199xtIg0qw4RX7GOKSr/FJRcqRyT6Yn2grLZgIjLtoIy&#10;ffZ/p6ic773PSw95jvGgJZ5g7JxyFhkBaVkdJo5pSjlFD1btNLtYQ4RkiOt957Qx&#10;tBqTOqWc0+HO6dGE8syfWO9mP8UEthGV0i080/NsFPzbOmwzLA5vAQAAAAAAmvUH&#10;wJqcgMXpCcoAAAAASUVORK5CYII=" height="85" preserveAspectRatio="none"/>
      <rect x="204.25" y="242.5" transform="matrix(0.5912,0,0,0.5912,-111.94,-134.5543)" clip-path="url(#clipPath2)" fill="url(#linearGradient5)" width="432.5" image-rendering="auto" rx="4" ry="4" height="109" stroke="none"/>
    </g>
    <g stroke-linecap="butt" transform="matrix(1,0,0,1,-58,-21)" fill="rgb(18,62,162)" text-rendering="geometricPrecision" shape-rendering="geometricPrecision" stroke="rgb(18,62,162)" stroke-miterlimit="1.45">
      <rect x="204.25" y="242.5" clip-path="url(#clipPath2)" fill="none" width="432.5" rx="4" ry="4" height="109"/>
    </g>
    <g stroke-linecap="butt" transform="matrix(1,0,0,1,-58,-21)" fill-opacity="0" fill="rgb(0,0,0)" text-rendering="geometricPrecision" shape-rendering="geometricPrecision" stroke="rgb(0,0,0)" stroke-opacity="0" stroke-miterlimit="1.45">
      <path d="M413 332.5 L428 332.5 L428 347.5 L413 347.5 Z" clip-path="url(#clipPath2)" stroke="none"/>
    </g>
    <g text-rendering="geometricPrecision" shape-rendering="geometricPrecision" transform="matrix(1,0,0,1,-58,-21)" stroke-linecap="butt">
      <path fill="none" d="M413 332.5 L428 332.5 L428 347.5 L413 347.5 Z" clip-path="url(#clipPath2)"/>
      <path fill="none" d="M416.66 340 L424.34 340" clip-path="url(#clipPath2)"/>
      <text x="405.3887" y="259.6387" clip-path="url(#clipPath2)" font-family="sans-serif" stroke="none" xml:space="preserve" stroke-miterlimit="1.45">Send</text>
    </g>
    <g fill="url(#linearGradient6)" text-rendering="geometricPrecision" shape-rendering="geometricPrecision" transform="matrix(1,0,0,1,-58,-21)" stroke="url(#linearGradient6)">
      <rect x="270" y="280" clip-path="url(#clipPath2)" width="120" rx="20" ry="20" height="40" stroke="none"/>
    </g>
    <g text-rendering="geometricPrecision" stroke-miterlimit="1.45" shape-rendering="geometricPrecision" transform="matrix(1,0,0,1,-58,-21)" stroke-linecap="butt">
      <rect x="270" y="280" clip-path="url(#clipPath2)" fill="none" width="120" rx="20" ry="20" height="40"/>
      <text x="314.8887" xml:space="preserve" y="297.1699" font-family="sans-serif" clip-path="url(#clipPath2)" stroke="none">Send</text>
      <text x="290.1826" xml:space="preserve" y="311.1387" font-family="sans-serif" clip-path="url(#clipPath2)" stroke="none">PCIe Request</text>
    </g>
    <g fill="url(#linearGradient7)" text-rendering="geometricPrecision" shape-rendering="geometricPrecision" transform="matrix(1,0,0,1,-58,-21)" stroke="url(#linearGradient7)">
      <rect x="450" y="280" clip-path="url(#clipPath2)" width="120" rx="20" ry="20" height="40" stroke="none"/>
    </g>
    <g text-rendering="geometricPrecision" stroke-miterlimit="1.45" shape-rendering="geometricPrecision" transform="matrix(1,0,0,1,-58,-21)" stroke-linecap="butt">
      <rect x="450" y="280" clip-path="url(#clipPath2)" fill="none" width="120" rx="20" ry="20" height="40"/>
      <text x="494.8887" xml:space="preserve" y="297.1699" font-family="sans-serif" clip-path="url(#clipPath2)" stroke="none">Send</text>
      <text x="470.3584" xml:space="preserve" y="311.1387" font-family="sans-serif" clip-path="url(#clipPath2)" stroke="none">Transmission</text>
    </g>
    <g text-rendering="geometricPrecision" stroke-miterlimit="1.45" shape-rendering="geometricPrecision" transform="matrix(1,0,0,1,-58,-21)" stroke-linecap="butt">
      <path fill="none" d="M390 171.0075 L390 234.485" clip-path="url(#clipPath2)"/>
    </g>
    <g text-rendering="geometricPrecision" stroke-miterlimit="1.45" shape-rendering="geometricPrecision" transform="matrix(1,0,0,1,-58,-21)" stroke-linecap="butt">
      <path d="M390 242.485 L395 230.485 L390 233.485 L385 230.485 Z" clip-path="url(#clipPath2)" stroke="none"/>
      <path fill="none" d="M452 242.527 L452 179.0373" clip-path="url(#clipPath2)"/>
      <path d="M452 171.0373 L447 183.0373 L452 180.0373 L457 183.0373 Z" clip-path="url(#clipPath2)" stroke="none"/>
    </g>
  </g>
</svg>
